<svg width="258" height="258" viewBox="0 0 258 258" fill="none" xmlns="http://www.w3.org/2000/svg">
    <path d="M1 1H257V257H1V1Z" fill="#3E6325" />
    <path d="M94.0532 183.656H163.945V189.751H94.0532V183.656Z" fill="white" />
    <path d="M94.0532 195.846H163.945V207.224H94.0532V195.846Z" fill="white" />
    <path
        d="M103.523 75.8313C103.989 75.9036 104.457 75.9405 104.923 75.9405C105.703 75.9405 106.467 75.8156 107.211 75.6156L108.958 78.4111L113.964 75.3573L112.043 72.2793C112.837 71.1895 113.398 69.945 113.616 68.5798C113.987 66.281 113.428 63.9764 112.043 62.0962C110.658 60.2102 108.614 58.9714 106.285 58.6081C103.977 58.2477 101.63 58.794 99.7212 60.1662C97.8158 61.5342 96.5637 63.5549 96.1961 65.8567C95.8256 68.1555 96.3842 70.4601 97.7684 72.3404C99.1483 74.2291 101.194 75.468 103.523 75.8313ZM103.177 64.869C103.686 64.5057 104.283 64.3156 104.9 64.3156C105.053 64.3156 105.209 64.3283 105.364 64.351C106.141 64.4731 106.82 64.886 107.28 65.5104L107.283 65.5133C107.741 66.1419 107.929 66.9082 107.808 67.6759C107.685 68.4436 107.264 69.1177 106.632 69.5732C105.998 70.0245 105.224 70.2075 104.444 70.094C103.668 69.9719 102.989 69.559 102.527 68.9318C101.571 67.6319 101.862 65.8098 103.177 64.869Z"
        fill="white" />
    <path
        d="M149.036 78.4111L150.782 75.6152C151.526 75.8153 152.292 75.9402 153.07 75.9402C153.535 75.9402 154.003 75.9033 154.47 75.8309C156.799 75.4676 158.841 74.2285 160.225 72.3452C161.613 70.4618 162.172 68.1569 161.801 65.8577C161.434 63.5557 160.182 61.5361 158.275 60.1665C156.367 58.794 154.026 58.2476 151.711 58.6081C149.382 58.9714 147.339 60.2105 145.956 62.0938C144.569 63.9772 144.011 66.2821 144.381 68.5813C144.598 69.9466 145.159 71.1913 145.953 72.2813L144.034 75.3597L149.036 78.4111ZM150.712 65.5029C151.17 64.8756 151.854 64.4654 152.626 64.3434C152.783 64.3207 152.938 64.3079 153.091 64.3079C153.709 64.3079 154.306 64.4966 154.814 64.86C156.125 65.8024 156.42 67.6247 155.468 68.9219L155.465 68.9276C155.005 69.5549 154.323 69.9651 153.549 70.0871C152.765 70.2007 151.994 70.0204 151.363 69.5663C150.726 69.1107 150.309 68.4323 150.185 67.6687C150.062 66.9037 150.25 66.1331 150.712 65.5029Z"
        fill="white" />
    <path
        d="M152.253 99.8763C152.253 90.4507 146.631 82.0119 137.93 78.3833C134.268 76.8577 131.904 73.1878 131.904 69.036C131.904 67.9312 132.082 66.842 132.434 65.7913L137.718 56.1965L128.998 50.3726L120.277 56.1965L125.561 65.7913C125.913 66.8463 126.091 67.934 126.091 69.036C126.091 73.1878 123.727 76.8577 120.064 78.3833C111.364 82.0148 105.742 90.4507 105.742 99.8763V105.7H91.207V144.365C92.9359 145.376 94.114 147.234 94.114 149.38V169.839C96.5497 167.991 99.5504 166.852 102.835 166.852H104.701C99.6256 150.344 97.021 133.239 97.021 115.931V111.524H111.556V102.788C111.556 93.1523 119.378 85.3164 128.998 85.3164C138.617 85.3164 146.439 93.1523 146.439 102.788V111.524H160.974V115.931C160.974 133.239 158.369 150.344 153.294 166.852H155.16C158.445 166.852 161.445 167.991 163.881 169.839V149.38C163.881 147.234 165.058 145.376 166.788 144.365V105.7H152.253V99.8763Z"
        fill="white" />
    <path d="M169.633 181.215V207.336H178.471C179.478 207.336 180.465 207.438 181.417 207.629V160.899H169.633V181.215Z"
        fill="white" />
    <path
        d="M181.417 82.0683C181.417 85.2099 178.779 87.7572 175.525 87.7572C172.271 87.7572 169.633 85.2099 169.633 82.0683C169.633 78.9266 172.271 76.3794 175.525 76.3794C178.779 76.3794 181.417 78.9266 181.417 82.0683Z"
        fill="white" />
    <path
        d="M172.479 93.4448V143.426H178.574V93.4448C177.592 93.6897 176.583 93.8591 175.526 93.8591C174.468 93.8591 173.459 93.6897 172.479 93.4448Z"
        fill="white" />
    <path d="M169.633 148.709H181.417V154.804H169.633V148.709Z" fill="white" />
    <path
        d="M140.853 117.311V102.698C140.853 96.2503 135.628 91.0073 129.202 91.0073C122.776 91.0073 117.551 96.2503 117.551 102.698V117.311H102.993C103.135 134.215 105.827 150.906 110.953 166.995H147.451C152.577 150.906 155.268 134.215 155.412 117.311H140.853Z"
        fill="white" />
    <path d="M76.5796 148.709H88.3637V154.804H76.5796V148.709Z" fill="white" />
    <path d="M76.5796 207.629C77.5304 207.438 78.5172 207.336 79.5256 207.336H88.3637V160.899H76.5796V207.629Z"
        fill="white" />
    <path
        d="M82.471 93.8591C81.4129 93.8591 80.404 93.6897 79.4233 93.4448V143.426H85.5186V93.4448C84.5364 93.6897 83.5275 93.8591 82.471 93.8591Z"
        fill="white" />
    <path
        d="M88.3637 82.0683C88.3637 85.2099 85.7255 87.7572 82.4717 87.7572C79.2178 87.7572 76.5796 85.2099 76.5796 82.0683C76.5796 78.9266 79.2178 76.3794 82.4717 76.3794C85.7255 76.3794 88.3637 78.9266 88.3637 82.0683Z"
        fill="white" />
    <path
        d="M94.8657 178.372H163.539C162.34 174.824 159.111 172.276 155.327 172.276H103.078C99.2921 172.276 96.0648 174.824 94.8657 178.372Z"
        fill="white" />
    <path
        d="M1 1V0H0V1H1ZM257 1H258V0H257V1ZM257 257V258H258V257H257ZM1 257H0V258H1V257ZM1 2H257V0H1V2ZM256 1V257H258V1H256ZM257 256H1V258H257V256ZM2 257V1H0V257H2Z"
        fill="#5A8E36" />
    <path
        d="M1 1V0H0V1H1ZM257 1H258V0H257V1ZM257 257V258H258V257H257ZM1 257H0V258H1V257ZM1 2H257V0H1V2ZM256 1V257H258V1H256ZM257 256H1V258H257V256ZM2 257V1H0V257H2Z"
        fill="white" fill-opacity="0.5" />
</svg>
